<svg width="64" height="64" xmlns="http://www.w3.org/2000/svg">
    <path d="M24 4.407c12.703 0 23 10.297 23 23s-10.297 23-23 23-23-10.297-23-23 10.297-23 23-23z" style="fill:#d79e4e;fill-opacity:1" transform="translate(3.826 -.174) scale(1.1739)"/>
    <path d="M28 14c-9.942 0-18 8.058-18 18s8.058 18 18 18 18-8.058 18-18-8.058-18-18-18z" style="fill:#c08737;fill-opacity:1" transform="translate(4)"/>
    <path d="M30.832 18.044a14.011 14.011 0 0 0-12.784 12.789h12.784zm2.335.005v12.784h12.79a14.011 14.011 0 0 0-12.79-12.784zM18.043 33.168a14.011 14.011 0 0 0 12.79 12.784V33.168zm15.124 0v12.789a14.011 14.011 0 0 0 12.784-12.79z" fill="#fff"/>
</svg>
