<svg xmlns="http://www.w3.org/2000/svg" width="64" height="64" viewBox="0 0 16.933 16.933">
    <g transform="translate(0 -280.067)">
        <rect style="fill:#d5e3fb;fill-opacity:1;fill-rule:evenodd;stroke-width:0.264533" width="12.7" height="13.758" x="2.117" y="281.654" rx="1.985" ry="1.983"/>
        <path style="fill:#7aa0ec;fill-opacity:1;stroke-width:0.264393" d="M4.098 281.654a1.979 1.979 0 0 0-1.981 1.985v.925h12.7v-.925c0-1.1-.885-1.985-1.982-1.985z"/>
        <rect style="opacity:1;fill:#aac6f8;fill-opacity:1;stroke-width:1.4132;stroke-miterlimit:4;stroke-dasharray:none" width="9.525" height=".529" x="3.704" y="286.285" rx=".265" ry=".528"/>
        <rect style="fill:#aac6f8;fill-opacity:1;stroke-width:1.4132;stroke-miterlimit:4;stroke-dasharray:none" width="9.525" height=".529" x="3.704" y="289.195" rx=".265" ry=".528"/>
        <rect style="fill:#aac6f8;fill-opacity:1;stroke-width:1.4132;stroke-miterlimit:4;stroke-dasharray:none" width="9.525" height=".529" x="3.704" y="292.105" rx=".265" ry=".528"/>
    </g>
</svg>
