<?xml version="1.0" encoding="UTF-8" standalone="no"?>
<svg
   width="64"
   height="64"
   version="1"
   id="svg6"
   xmlns="http://www.w3.org/2000/svg"
   xmlns:svg="http://www.w3.org/2000/svg">
  <defs
     id="defs10" />
  <circle
     cx="32"
     cy="32"
     r="26"
     style="paint-order:markers stroke fill;fill:#535e7e;fill-opacity:1"
     transform="translate(-1.23 -1.23) scale(1.0385)"
     stroke-width=".927"
     id="circle2" />
  <path
     d="m 22.709214,23.002 18,18 -9,8.5 v -35 l 9,8.5 -18,16"
     fill="none"
     stroke="#ffffff"
     id="path4"
     style="stroke-width:4;stroke-linejoin:round;stroke-miterlimit:4;stroke-dasharray:none" />
</svg>
