<?xml version="1.0" encoding="UTF-8" standalone="no"?>
<svg
   width="64"
   height="64"
   viewBox="0 0 16.933 16.933"
   version="1.1"
   id="svg18"
   xmlns="http://www.w3.org/2000/svg"
   xmlns:svg="http://www.w3.org/2000/svg">
  <defs
     id="defs22" />
  <g
     transform="translate(0 -280.067)"
     id="g16">
    <rect
       style="opacity:1;fill:#587cec;fill-opacity:1;stroke-width:0.264578"
       id="rect965"
       width="13.758062"
       height="12.69975"
       x="1.5874686"
       y="282.18362"
       rx="1.9843359"
       ry="1.9843359" />
    <g
       transform="rotate(90 .132 -.132)"
       id="g14">
      <rect
         ry=".265"
         y="-11.112"
         x="284.565"
         height=".529"
         width="8.467"
         opacity=".75"
         fill="#fff"
         paint-order="stroke markers fill"
         id="rect4" />
      <circle
         r="1.058"
         cy="-10.848"
         cx="290.385"
         fill="#fff"
         paint-order="stroke markers fill"
         id="circle6" />
      <rect
         width="8.467"
         height=".529"
         x="284.565"
         y="-6.879"
         ry=".265"
         opacity=".75"
         fill="#fff"
         paint-order="stroke markers fill"
         id="rect8" />
      <circle
         r="1.587"
         cy="-6.615"
         cx="286.946"
         opacity=".25"
         paint-order="markers stroke fill"
         id="circle10" />
      <circle
         cx="286.946"
         cy="-6.615"
         r="1.058"
         fill="#fff"
         paint-order="markers stroke fill"
         id="circle12" />
    </g>
  </g>
</svg>
