<svg xmlns="http://www.w3.org/2000/svg" width="64" height="64" viewBox="0 0 16.933 16.933">
    <circle cx="8.467" cy="288.53" r="6.879" fill="#587cec" style="paint-order:markers stroke fill" transform="translate(-.326 -291.168) scale(1.0385)" stroke-width=".927"/>
    <path d="m9.141 4.229-1.471.105v5.86l1.471-.179V7.457c.638.963 1.15 1.859 2.005 2.79l1.524-.438a19.904 19.904 0 0 1-1.981-2.685c.578-.853 1.303-1.71 2.011-2.476l-1.579-.388a25.18 25.18 0 0 0-1.98 2.552m-3.352-1.38a.12.12 0 0 0-.065.034c-.173.164-.337.328-.51.492-.075.073.002.16.035.22l.35.484.262.353c.037.05.048.056.029.092a2.283 2.283 0 0 0-.065.105c-.34.572-.102.616-.83.801l-.559.093c-.082.027-.19.025-.196.14 0 .23-.007.46-.007.69-.004.107.115.117.185.135l.594.103.445.081c.06.008.074-.006.088.04.182.767.42.59.023 1.262l-.32.445c-.042.077-.12.153-.04.231.168.167.329.335.498.502.075.073.171-.002.232-.035l.492-.342.368-.247c.05-.042.057-.052.095-.03.737.451.763.126.978.884l.106.543c.028.08.03.185.143.19h.717c.107 0 .117-.123.13-.19l.1-.578.072-.427c.005-.041.003-.062.011-.076.864-.178.65-.428 1.352-.029l.456.312c.084.041.164.113.244.036.169-.16.337-.321.507-.48.076-.077.001-.165-.035-.224h-.007l-.332-.456-.219.074c-.056.037-.13.023-.197-.063l-.48-.618a2.472 2.472 0 0 1-1.993.994c-1.351 0-2.455-1.074-2.455-2.39 0-.936.557-1.746 1.364-2.138v-.55c-.027.014-.06.021-.082.03-.316.127-.336.185-.853-.104l-.456-.317c-.064-.028-.12-.08-.178-.066m1.566 1.229A2.203 2.203 0 0 0 6.2 8.59c0 1.213 1.017 2.206 2.268 2.206a2.27 2.27 0 0 0 1.86-.962l-.022-.047c-.48.518-1.021.854-1.845.872-1.026.018-2.065-.872-2.07-2.045-.009-.756.35-1.264.96-1.627v-.318m.001 0" fill="#fff" fill-rule="evenodd"/>
</svg>
