<svg xmlns="http://www.w3.org/2000/svg" width="64" height="64" viewBox="0 0 16.933 16.933">
    <circle cx="8.467" cy="288.53" r="6.879" fill="#5df" style="paint-order:stroke markers fill" transform="translate(-.326 -291.162) scale(1.0385)" stroke-width=".927"/>
    <path d="M5.36 5.9V4.304l1.255-.342 2.621 1.026 3.533 5.699-1.823-1.368-.228 3.192-.684-1.596-.456 2.963-.456-5.698-1.14-.456L7.071 5.9l-.456-.456-.456-.228z" fill="#1a1a1a"/>
</svg>
