<svg width="64" height="64" viewBox="0 0 16.933 16.933" xmlns="http://www.w3.org/2000/svg">
    <g transform="translate(0 -280.067)" paint-order="markers stroke fill">
        <rect ry="1.908" rx="1.908" y="281.919" x="1.852" height="13.229" width="13.229" fill="#dd677a" style="fill:#dd677a" transform="matrix(1.04 0 0 1.04 -.339 -11.541)" stroke-width=".962"/>
        <circle cx="5.027" cy="285.094" r="1.058" fill="#fff"/>
        <circle r="1.058" cy="285.094" cx="11.906" fill="#fff"/>
        <circle r="1.058" cy="291.973" cx="5.027" fill="#fff"/>
        <circle cx="11.906" cy="291.973" r="1.058" fill="#fff"/>
        <circle r="1.058" cy="288.533" cx="8.467" fill="#fff"/>
    </g>
</svg>
