<?xml version="1.0" encoding="UTF-8" standalone="no"?>
<svg
   width="64"
   height="64"
   version="1.1"
   viewBox="0 0 16.933 16.933"
   id="svg28"
   xmlns="http://www.w3.org/2000/svg"
   xmlns:svg="http://www.w3.org/2000/svg">
  <defs
     id="defs32" />
  <g
     transform="translate(-1.0589e-8 -280.07)"
     paint-order="markers stroke fill"
     id="g6">
    <rect
       x="2.1170001"
       y="281.64999"
       width="12.700014"
       height="13.758"
       rx="1.9843359"
       ry="1.9843359"
       id="rect2"
       style="fill:#6dd79a;fill-opacity:1" />
    <path
       transform="matrix(.26458 0 0 .26458 0 280.07)"
       d="m16 10c-2.216 0-4 1.784-4 4v36c0 2.216 1.784 4 4 4h32c2.216 0 4-1.784 4-4v-24l-16-16zm25.998 0 10.002 9.998v-5.998c0-2.216-1.784-4-4-4z"
       stroke-width="3.7796"
       id="path4"
       style="fill:#e5ecff;fill-opacity:1" />
  </g>
  <rect
     x="5.027"
     y="7.6729999"
     width="6.8790002"
     height="4.4980001"
     rx="0.52915627"
     ry="0.52915627"
     style="paint-order:markers stroke fill;fill:#7aa0ec;fill-opacity:1"
     id="rect8" />
  <rect
     x="5.5560002"
     y="9.5249996"
     width="1.587"
     height="0.79400003"
     rx="0.26457813"
     ry="0.26457813"
     style="fill:#e5ecff;fill-opacity:1;paint-order:markers stroke fill"
     id="rect10" />
  <rect
     x="7.6729999"
     y="9.5249996"
     width="1.587"
     height="0.79400003"
     rx="0.26457813"
     ry="0.26457813"
     style="fill:#e5ecff;fill-opacity:1;paint-order:markers stroke fill"
     id="rect12" />
  <rect
     x="9.79"
     y="9.5249996"
     width="1.587"
     height="0.79400003"
     rx="0.26457813"
     ry="0.26457813"
     style="fill:#e5ecff;fill-opacity:1;paint-order:markers stroke fill"
     id="rect14" />
  <rect
     x="5.5560002"
     y="10.848"
     width="1.587"
     height="0.79400003"
     rx="0.26457813"
     ry="0.26457813"
     style="fill:#e5ecff;fill-opacity:1;paint-order:markers stroke fill"
     id="rect16" />
  <rect
     x="7.6729999"
     y="10.848"
     width="1.587"
     height="0.79400003"
     rx="0.26457813"
     ry="0.26457813"
     style="fill:#e5ecff;fill-opacity:1;paint-order:markers stroke fill"
     id="rect18" />
  <rect
     x="9.79"
     y="10.848"
     width="1.587"
     height="0.79400003"
     rx="0.26457813"
     ry="0.26457813"
     style="fill:#e5ecff;fill-opacity:1;paint-order:markers stroke fill"
     id="rect20" />
  <rect
     x="5.5560002"
     y="8.2019997"
     width="1.587"
     height="0.79400003"
     rx="0.26457813"
     ry="0.26457813"
     style="fill:#e5ecff;fill-opacity:1;paint-order:markers stroke fill"
     id="rect22" />
  <rect
     x="7.6729999"
     y="8.2019997"
     width="1.587"
     height="0.79400003"
     rx="0.26457813"
     ry="0.26457813"
     style="fill:#e5ecff;fill-opacity:1;paint-order:markers stroke fill"
     id="rect24" />
  <rect
     x="9.79"
     y="8.2019997"
     width="1.587"
     height="0.79400003"
     rx="0.26457813"
     ry="0.26457813"
     style="fill:#e5ecff;fill-opacity:1;paint-order:markers stroke fill"
     id="rect26" />
</svg>
