<svg width="64" height="64" version="1.1" viewBox="0 0 16.933 16.933" xmlns="http://www.w3.org/2000/svg">
 <g transform="translate(0 -280.07)">
  <circle cx="8.4665" cy="288.53" r="7.1436" fill="#7aa0ec" style="paint-order:stroke markers fill"/>
  <path d="M8.467 284.3a4.233 4.233 0 0 0-4.234 4.233 4.233 4.233 0 0 0 4.234 4.234 4.233 4.233 0 0 0 4.233-4.234 4.233 4.233 0 0 0-4.233-4.233zm.377.452c.412.038.81.131 1.173.29a.355.355 0 0 0-.069.124c-.111.334-.277.174-.082.593.195.418.358.526.414.331.056-.195-.14-.47.083-.358.223.111.388-.031.22.22-.167.251-.163.388-.358.332-.196-.056-.192.33-.387.386-.195.056-.263-.084-.263.055 0 .14.112.01.084.235-.009.068-.007.08-.015.11-.183-.052-.264-.08-.4-.028-.139.056-.304.414-.304.414.175.175.256.3.318.36-.039.018-.086.027-.124.054-.279.196-.496.232-.58.51-.083.28-.055.024-.055.36 0 .334-.085.108.083.414.167.307.577.454.773.622.195.167.396-.364.787.138.39.502.415.3.276.58-.14.278-.276.37-.331.482-.056.112.108.496.303.58h.014c-.01.024-.017.045-.028.069-.253.114-.562.273-.62.29-.139.04-.626.122-.98.22-.045.013-.08.013-.098.015.044-.048.394-.23.567-.331.236-.139-.015-.125-.015-.125s-.376-.041-1.145-.041c-.385 0-.551.017-.635.041a.21.21 0 0 0-.083.042c-.02.018-.035.036-.07.055-.137.08.082.162-.096.221-.133.044-.148 0-.262-.083.081-.08.193-.178.331-.345.251-.304.33-.249.414-.525.084-.276-.703-.193-.703-.359 0-.166-.136-.276-.387-.386-.251-.11-.08-.166-.359-.249-.279-.082-.593.415-.677.249-.083-.166.263-.166.263-.359 0-.188-.398.142-.47-.097-.002-.009-.012-.009-.013-.014-.007-.035-.003-.055 0-.083.017-.198.247-.276.345-.47.111-.22.054.167.193.36.14.194.084-.248 0-.496-.083-.25.053-.25.248-.58.195-.332.194-.525.194-.774 0-.248.135-.276.414-.524.128-.114.228-.213.304-.304.018-.009.036-.009.055-.014.295-.119.42-.296.676-.828.256-.533-.1-.036-.179-.056-.079-.02-.193-.16-.47-.317a.444.444 0 0 0-.151-.055l.51-.842c.164-.044.34-.074.51-.097.064.357.029.69.029.69s-.097.115-.097.194.528-.65.607-.69c.08-.04.279.208.318-.166.002-.022-.002-.022 0-.04zm.7 1.489c-.017.005-.034.009-.051.016 0 .097-.038.168-.056.207-.01-.018-.04-.042-.04-.042-.043.077-.133.145-.042.124.09-.02.16.035.097-.041-.012-.015-.007-.01-.015-.015.012.01.035.015.084.015h.123c-.067.05-.14.071-.04.097.132.034.193.042.193.014a.639.639 0 0 0-.042-.125c.026-.01.05-.023.027-.068-.041-.084-.107-.167-.192-.18a.14.14 0 0 0-.046-.002zm2.157.235c.07.108.136.218.194.332-.039.223-.136.373.027.373.046 0 .087-.01.124-.014.006.014.01.028.014.04-.279 0-.413.084-.552.056-.14-.029-.527-.053-.276-.304.147-.146.33-.38.47-.483zm-1.739.51v.002c.026.009.048.035.07.082.083.195.221.358.11.386-.112.028-.166.056-.166.056s.386.251.414-.028c.028-.279-.11-.442-.11-.442s.192.193.248.304c.056.112.054 0 .193.138.14.14.109-.554.304-.358.195.195.318.19.262.33-.056.14.359-.168.359.111 0 .269.172.378-.165.51-.128-.008-.23-.03-.25-.068-.055-.112-.372-.027-.372-.027-.834-.209-1.196-.275-1.435-.235.004-.009.008-.009.013-.014.122-.22.352-.525.276-.635.107-.061.19-.129.25-.11zm2.347 1.396c.002.056 0 .11 0 .166 0 .157-.01.316-.027.468-.251-.223-.608-.22-.608-.22s.217-.247.524-.359a.486.486 0 0 0 .11-.055z" fill="#fff"/>
 </g>
</svg>
