<?xml version="1.0" encoding="UTF-8" standalone="no"?>
<svg
   width="64"
   height="64"
   viewBox="0 0 16.933 16.933"
   version="1.1"
   id="svg28"
   xmlns:xlink="http://www.w3.org/1999/xlink"
   xmlns="http://www.w3.org/2000/svg"
   xmlns:svg="http://www.w3.org/2000/svg">
  <defs
     id="defs8">
    <linearGradient
       id="a">
      <stop
         offset="0"
         id="stop2" />
      <stop
         offset="1"
         stop-opacity="0"
         id="stop4" />
    </linearGradient>
    <linearGradient
       gradientTransform="matrix(.26458 0 0 .26458 0 280.067)"
       xlink:href="#a"
       id="b"
       x1="46.168"
       y1="57"
       x2="46.168"
       y2="27.346"
       gradientUnits="userSpaceOnUse" />
  </defs>
  <g
     transform="translate(0 -280.067)"
     id="g26">
    <g
       transform="matrix(1.04 0 0 1.04 -.339 -11.541)"
       stroke-width=".962"
       paint-order="markers stroke fill"
       id="g14">
      <rect
         ry="1.9080154"
         rx="1.9080154"
         y="281.91901"
         x="1.852"
         height="13.229"
         width="13.228907"
         fill="#b3b3b3"
         id="rect10" />
    </g>
    <path
       d="M8.467 283.506a1.32 1.32 0 0 0-1.323 1.323v3.798a2.646 2.646 0 0 0-1.323 2.288 2.646 2.646 0 0 0 2.646 2.645 2.646 2.646 0 0 0 2.645-2.645 2.646 2.646 0 0 0-1.322-2.29v-3.796a1.32 1.32 0 0 0-1.323-1.323zm0 .794c.307 0 .529.222.529.53v4.254l.397.23c.573.33.925.939.926 1.601a1.84 1.84 0 0 1-1.852 1.852 1.84 1.84 0 0 1-1.852-1.851c0-.663.353-1.27.926-1.601l.396-.23v-4.256c0-.307.223-.529.53-.529z"
       opacity=".5"
       id="path16" />
    <path
       d="M7.937 286.681v2.405l-.396.229c-.573.33-.925.938-.926 1.6a1.84 1.84 0 0 0 1.852 1.852 1.84 1.84 0 0 0 1.852-1.852 1.85 1.85 0 0 0-.926-1.602l-.397-.229v-2.403z"
       fill="#f55"
       id="path18" />
    <path
       opacity=".5"
       paint-order="stroke fill markers"
       d="M11.377 284.035h2.117v.529h-2.117zM11.377 285.094h2.117v.529h-2.117zM11.377 286.152h2.117v.529h-2.117zM11.377 287.21h2.117v.529h-2.117zM11.377 288.269h2.117v.529h-2.117z"
       id="path20" />
    <circle
       r=".529"
       cy="283.771"
       cx="3.704"
       opacity=".5"
       paint-order="stroke fill markers"
       id="circle22" />
    <circle
       cx="3.704"
       cy="283.771"
       r=".265"
       fill="#f55"
       paint-order="stroke fill markers"
       id="circle24" />
  </g>
</svg>
