<svg width="64" height="64" viewBox="0 0 16.933 16.933" xmlns:xlink="http://www.w3.org/1999/xlink" xmlns="http://www.w3.org/2000/svg">
    <defs>
        <linearGradient id="a">
            <stop style="stop-color:#587cec;stop-opacity:1" offset="0"/>
            <stop style="stop-color:#355594;stop-opacity:1" offset="1"/>
        </linearGradient>
        <linearGradient xlink:href="#a" id="b" x1="8.467" y1="15.61" x2="8.467" y2="8.467" gradientUnits="userSpaceOnUse"/>
    </defs>
    <circle style="fill:url(#b);stroke-width:0.265531;fill-opacity:1" cx="8.467" cy="8.467" r="7.144"/>
    <g transform="matrix(.3175 0 0 .3175 .847 1.164)" style="fill:#ffffff">
        <path d="M26 18v9.625l3.684.957 4.287-6.742h-3.625L26 18"/>
        <path d="M31 11a6 6 0 0 0-6 6 6 6 0 0 0 6 6 6 6 0 0 0 6-6 6 6 0 0 0-6-6zm0 2a4 4 0 0 1 4 4 4 4 0 0 1-4 4 4 4 0 0 1-4-4 4 4 0 0 1 4-4zm0 2a2 2 0 0 0-2 2 2 2 0 0 0 2 2 2 2 0 0 0 2-2 2 2 0 0 0-2-2zm-16 6a4 4 0 0 0-4 4 4 4 0 0 0 4 4 4 4 0 0 0 4-4 4 4 0 0 0-4-4zm0 1a3 3 0 0 1 3 3 3 3 0 0 1-3 3 3 3 0 0 1-3-3 3 3 0 0 1 3-3z"/>
        <rect transform="matrix(.8931 .44985 -.45815 .88887 0 0)" x="22.784" y="13.579" width="17.423" height="3.964" rx="1.982"/>
        <path d="M27 27a4 4 0 0 0-4 4 4 4 0 0 0 4 4 4 4 0 0 0 4-4 4 4 0 0 0-4-4zm0 1a3 3 0 0 1 3 3 3 3 0 0 1-3 3 3 3 0 0 1-3-3 3 3 0 0 1 3-3z"/>
    </g>
</svg>
