<?xml version="1.0" encoding="UTF-8" standalone="no"?>
<svg
   width="64"
   height="64"
   viewBox="0 0 16.933 16.933"
   version="1.1"
   id="svg13"
   xmlns="http://www.w3.org/2000/svg"
   xmlns:svg="http://www.w3.org/2000/svg">
  <defs
     id="defs7">
    <linearGradient
       id="a">
      <stop
         offset="0"
         id="stop2" />
      <stop
         offset="1"
         stop-opacity="0"
         id="stop4" />
    </linearGradient>
  </defs>
  <rect
     ry="1.908"
     rx="1.9080154"
     y="281.91901"
     x="1.852"
     height="13.229"
     width="13.228907"
     style="fill:#587cec;fill-opacity:1"
     transform="matrix(1.04,0,0,1.04,-0.339,-291.608)"
     stroke-width="0.962"
     paint-order="markers stroke fill"
     id="rect9" />
  <path
     d="m4.852 8.202-.003-2.58 2.894-.431v3.011zm3.374-3.088 3.857-.616v3.704H8.226zm3.858 3.617-.001 3.704-3.857-.595V8.731zm-4.34 3.042-2.892-.435V8.73h2.891v3.042z"
     fill="#fff"
     id="path11" />
</svg>
