<?xml version="1.0" encoding="UTF-8" standalone="no"?>
<svg
   width="64"
   height="64"
   viewBox="0 0 16.933 16.933"
   version="1.1"
   id="svg20"
   xmlns:xlink="http://www.w3.org/1999/xlink"
   xmlns="http://www.w3.org/2000/svg"
   xmlns:svg="http://www.w3.org/2000/svg">
  <defs
     id="defs8">
    <linearGradient
       id="a">
      <stop
         offset="0"
         id="stop2" />
      <stop
         offset="1"
         stop-opacity="0"
         id="stop4" />
    </linearGradient>
    <linearGradient
       xlink:href="#a"
       id="b"
       x1="46.168"
       y1="57"
       x2="46.168"
       y2="27.346"
       gradientUnits="userSpaceOnUse" />
  </defs>
  <g
     transform="matrix(1.04 0 0 1.04 -.339 -291.608)"
     stroke-width=".962"
     paint-order="markers stroke fill"
     id="g14">
    <rect
       ry="1.9080154"
       rx="1.9080154"
       y="281.91901"
       x="1.852"
       height="13.229"
       width="13.228907"
       fill="#4caf50"
       id="rect10" />
  </g>
  <g
     fill="none"
     stroke="#fff"
     stroke-width="2"
     stroke-linecap="round"
     stroke-linejoin="round"
     id="g18">
    <path
       d="M8.463 8.467h-2.35s-1.41 0-1.41-1.41 1.41-1.41 1.41-1.41h5.64M8.47 8.467h2.35s1.41 0 1.41 1.41-1.41 1.41-1.41 1.41H5.18"
       stroke-width=".9399"
       id="path16" />
  </g>
</svg>
