<svg xmlns="http://www.w3.org/2000/svg" width="22" height="22" viewBox="0 0 5.821 5.821">
    <circle
     style="opacity:1;fill:#0e142b;fill-opacity:0.4;stroke:none;stroke-width:0.529182;stroke-linejoin:miter;stroke-miterlimit:4;stroke-dasharray:none;stroke-opacity:0.2;paint-order:markers stroke fill"
     id="path1706"
     cx="2.9105"
     cy="2.9105"
     r="2.3813181" />
    <rect ry="2.117" rx="2.117" y="-5.027" x="-296.206" height="4.233" width="4.233" transform="matrix(0 -1 -1 0 0 -291.18)" fill="#2196f3"/></svg>
