<?xml version="1.0" encoding="UTF-8" standalone="no"?>
<svg
   width="22"
   height="22"
   version="1.1"
   id="svg10"
   xmlns="http://www.w3.org/2000/svg"
   xmlns:svg="http://www.w3.org/2000/svg">
  <defs
     id="defs14" />
  <style
     id="current-color-scheme"
     type="text/css">.ColorScheme-Highlight {
            color:#3daee9;
        }
        .ColorScheme-Text {
            color:#232629;
        }</style>
  <circle
     style="opacity:1;fill:#0e142b;fill-opacity:0.4;stroke:none;stroke-width:2;stroke-linejoin:miter;stroke-miterlimit:4;stroke-dasharray:none;stroke-opacity:0.2;paint-order:markers stroke fill"
     id="path1706"
     cx="11"
     cy="11"
     r="9" />
  <g
     transform="matrix(3.7794 0 0 3.7794 1.3524e-8 -1100.5)"
     id="g6">
    <rect
       transform="matrix(0,-1,-1,0,0,0)"
       x="-296.21"
       y="-5.027"
       width="4.233"
       height="4.233"
       rx="2.117"
       ry="2.117"
       fill="#3daee9"
       id="rect4" />
  </g>
  <path
     d="m10 6v4h-4v2h4v4h2v-4h4v-2h-4v-4z"
     fill="#fff"
     id="path8" />
</svg>
