<svg width="64" height="64" version="1" xmlns="http://www.w3.org/2000/svg">
 <rect transform="matrix(0,-1,-1,0,0,0)" x="-58" y="-58" width="52" height="52" rx="8" ry="8" fill="#535e7e"/>
 <path d="m32 14a18 18 0 0 0-18 18 18 18 0 0 0 18 18 18 18 0 0 0 18-18 18 18 0 0 0-18-18zm0 10.8a7.2 7.2 0 0 1 7.2 7.2 7.2 7.2 0 0 1-7.2 7.2 7.2 7.2 0 0 1-7.2-7.2 7.2 7.2 0 0 1 7.2-7.2z" fill="#535e7e"/>
 <circle cx="32" cy="32" r="13" fill="#fff" paint-order="markers stroke fill"/>
 <circle cx="32" cy="32" r="8" fill="#c3495e" paint-order="markers stroke fill"/>
</svg>
