<svg width="64" height="64" version="1" xmlns="http://www.w3.org/2000/svg" xmlns:xlink="http://www.w3.org/1999/xlink">
 <path d="M53 55V9c0-1.662-1.338-3-3-3H14c-1.662 0-3 1.338-3 3v46c0 1.662 1.338 3 3 3h36c1.662 0 3-1.338 3-3z" fill="#535e7e"/>
 <circle cx="32" cy="31" r="16" fill="#fff" paint-order="markers stroke fill"/>
 <circle cx="32" cy="31" r="14" fill="#53a6bc" paint-order="markers stroke fill"/>
 <path d="M25 34h14v3H25zm7-10l7 7H25z" fill="#fff"/>
</svg>
