<?xml version="1.0" encoding="UTF-8" standalone="no"?>
<svg
   width="64"
   height="64"
   viewBox="0 0 16.933 16.933"
   version="1.1"
   id="svg20"
   xmlns="http://www.w3.org/2000/svg"
   xmlns:svg="http://www.w3.org/2000/svg">
  <defs
     id="defs24" />
  <g
     transform="translate(-7.8036547e-5,-280.24999)"
     id="g12">
    <rect
       ry="0.26499999"
       height="5.027"
       width="12.171"
       y="283.76999"
       x="2.381"
       style="fill:#ffffff;paint-order:markers stroke fill"
       id="rect2" />
    <rect
       ry="1.9843359"
       rx="1.9843359"
       y="282.6312"
       x="0.52915627"
       height="6.8112993"
       width="7.4081874"
       style="opacity:1;fill:#5e80c5;fill-opacity:1;stroke-width:0;stroke-miterlimit:4;stroke-dasharray:none"
       id="rect4" />
    <rect
       ry="1.984"
       rx="1.984"
       y="283.59399"
       x="2.645"
       height="6.8800001"
       width="13.759"
       style="opacity:1;fill:#5e80c5;fill-opacity:1;stroke-width:0;stroke-miterlimit:4;stroke-dasharray:none"
       id="rect6" />
    <rect
       ry="1.785965"
       rx="1.7860271"
       y="284.21866"
       x="1.3228906"
       height="9.5248127"
       width="14.287219"
       style="opacity:1;fill:#ffffff;fill-opacity:1;stroke-width:0;stroke-miterlimit:4;stroke-dasharray:none"
       id="rect8" />
    <rect
       ry="1.9843359"
       rx="1.9843028"
       y="284.74783"
       x="0.52915627"
       height="10.053961"
       width="15.874687"
       style="opacity:1;fill:#7aa0ec;fill-opacity:1;stroke-width:0;stroke-miterlimit:4;stroke-dasharray:none"
       id="rect10" />
  </g>
  <g
     transform="matrix(0.64286,0,0,0.64286,2.344531,-176.47173)"
     style="fill:#ffffff"
     id="g18">
    <rect
       transform="rotate(45)"
       x="210.78999"
       y="198.64"
       width="1.058"
       height="4.2329998"
       rx="0.52899998"
       ry="0.52899998"
       id="rect14" />
    <path
       d="m 10.583,285.62 a 2.646,2.646 0 1 0 0,5.292 2.646,2.646 0 0 0 0,-5.292 z m 0,0.794 a 1.852,1.852 0 1 1 0,3.704 1.852,1.852 0 0 1 0,-3.704 z"
       id="path16" />
  </g>
</svg>
