<?xml version="1.0" encoding="UTF-8" standalone="no"?>
<svg
   width="64"
   height="64"
   version="1.1"
   id="svg20"
   xmlns="http://www.w3.org/2000/svg"
   xmlns:svg="http://www.w3.org/2000/svg">
  <defs
     id="defs4">
    <style
       id="style2" />
  </defs>
  <g
     transform="matrix(3.779602,0,0,3.779602,-2.9528009e-4,-1059.2334)"
     id="g12">
    <rect
       ry="0.26499999"
       height="5.027"
       width="12.171"
       y="283.76999"
       x="2.381"
       style="fill:#ffffff;paint-order:markers stroke fill"
       id="rect2" />
    <rect
       ry="1.9843359"
       rx="1.9843359"
       y="282.6312"
       x="0.52915627"
       height="6.8112993"
       width="7.4081874"
       style="opacity:1;fill:#5e80c5;fill-opacity:1;stroke-width:0;stroke-miterlimit:4;stroke-dasharray:none"
       id="rect4" />
    <rect
       ry="1.984"
       rx="1.984"
       y="283.59399"
       x="2.645"
       height="6.8800001"
       width="13.759"
       style="opacity:1;fill:#5e80c5;fill-opacity:1;stroke-width:0;stroke-miterlimit:4;stroke-dasharray:none"
       id="rect6-3" />
    <rect
       ry="1.785965"
       rx="1.7860271"
       y="284.21866"
       x="1.3228906"
       height="9.5248127"
       width="14.287219"
       style="opacity:1;fill:#ffffff;fill-opacity:1;stroke-width:0;stroke-miterlimit:4;stroke-dasharray:none"
       id="rect8-6" />
    <rect
       ry="1.9843359"
       rx="1.9843028"
       y="284.74783"
       x="0.52915627"
       height="10.053961"
       width="15.874687"
       style="opacity:1;fill:#7aa0ec;fill-opacity:1;stroke-width:0;stroke-miterlimit:4;stroke-dasharray:none"
       id="rect10-7" />
  </g>
  <path
     d="m 31.999705,27.000065 a 9,9 0 1 0 0,18 9,9 0 0 0 0,-18 z m -1.286,2.572 h 2.572 v 7.714 h -2.572 z m 1.286,9 a 1.286,1.286 0 1 1 0,2.571 1.286,1.286 0 0 1 0,-2.571 z"
     style="color:#727272;fill:#ffffff"
     id="path18" />
</svg>
