<?xml version="1.0" encoding="UTF-8" standalone="no"?>
<svg
   width="64"
   height="64"
   viewBox="0 0 16.933 16.933"
   version="1.1"
   id="svg12"
   xmlns="http://www.w3.org/2000/svg"
   xmlns:svg="http://www.w3.org/2000/svg">
  <defs
     id="defs16" />
  <g
     transform="translate(.794 -.794)"
     style="fill-rule:evenodd"
     id="g10">
    <circle
       cx="7.673"
       cy="9.26"
       r="7.144"
       style="fill:#7aa0ec;fill-opacity:1;paint-order:normal"
       id="circle2" />
    <g
       transform="matrix(2.15284 0 0 2.15284 -10.554 -11.496)"
       id="g8">
      <circle
         cy="8.4124775"
         cx="8.466258"
         style="opacity:1;fill:#ffffff;fill-opacity:1;stroke-width:0;stroke-miterlimit:4;stroke-dasharray:none"
         id="circle4"
         r="0.86028075" />
      <rect
         ry="0.55303764"
         rx="0.55303764"
         y="9.3956556"
         x="7.2372861"
         height="2.335048"
         width="2.4579451"
         style="opacity:1;fill:#ffffff;fill-opacity:1;stroke-width:0;stroke-miterlimit:4;stroke-dasharray:none"
         id="rect6" />
    </g>
  </g>
</svg>
