<svg width="64" height="64" version="1.1" xmlns="http://www.w3.org/2000/svg">
 <rect x="8" y="4" width="48" height="56" ry="7.5" fill="#4fbd7d" style="paint-order:stroke fill markers"/>
 <path d="m56 46-14 14h9c2.77 0 5-2.23 5-5z" fill="url(#a)" fill-rule="evenodd" opacity=".15" stroke-width="8.8191" style="paint-order:stroke fill markers"/>
 <path d="m56 22-23.991 23.991-10.506-10.652-13.503 13.626v4.2598l13.497-13.62 10.494 10.646 24.009-24.009z" fill="#ffffff" stroke-width="1.0909"/>
</svg>
