<svg width="48" height="48" xmlns="http://www.w3.org/2000/svg">
    <rect style="fill:#587cec" width="36" height="40" x="6" y="4" rx="7.5" ry="7.5" paint-order="markers stroke fill"/>
    <path d="M20.264 27.654H18.67v2.432c0 .348-.082.611-.246.791a.805.805 0 0 1-.621.27.811.811 0 0 1-.633-.267c-.16-.178-.24-.439-.24-.782v-6.621c0-.383.088-.657.263-.82.176-.165.455-.247.838-.247h2.233c.66 0 1.168.05 1.523.153a2.193 2.193 0 0 1 1.494 1.318c.133.328.2.697.2 1.107 0 .875-.27 1.538-.81 1.99-.538.45-1.34.676-2.407.676zm-.422-3.937H18.67v2.625h1.172c.41 0 .753-.043 1.028-.13.276-.085.485-.226.63-.421.145-.195.217-.451.217-.768 0-.378-.112-.687-.334-.925-.25-.254-.764-.381-1.541-.381zm11.619 4.705c0 .52-.134.986-.401 1.4-.268.414-.66.739-1.175.973-.516.234-1.127.351-1.834.351-.848 0-1.547-.16-2.098-.48a2.795 2.795 0 0 1-.952-.923c-.244-.385-.366-.759-.366-1.122 0-.21.073-.392.22-.542a.748.748 0 0 1 .56-.225.66.66 0 0 1 .465.175c.127.117.235.291.325.522.11.273.228.502.355.685.127.184.305.335.536.454.23.12.533.18.908.18.516 0 .934-.121 1.257-.361.322-.24.483-.54.483-.9 0-.285-.087-.516-.26-.694a1.681 1.681 0 0 0-.674-.407 11.588 11.588 0 0 0-1.105-.299c-.617-.145-1.134-.313-1.55-.507a2.505 2.505 0 0 1-.99-.79c-.244-.335-.366-.75-.366-1.246 0-.473.129-.893.387-1.26.257-.367.63-.65 1.119-.846.488-.198 1.062-.296 1.722-.296.528 0 .984.065 1.369.196.384.13.704.305.958.521.253.217.439.445.556.683.117.238.176.47.176.697a.824.824 0 0 1-.22.56.7.7 0 0 1-.548.249c-.199 0-.35-.05-.454-.15a2.013 2.013 0 0 1-.337-.489 2.218 2.218 0 0 0-.562-.759c-.219-.181-.57-.272-1.055-.272-.45 0-.811.099-1.087.296-.275.197-.413.434-.413.712 0 .172.047.32.14.445.095.125.223.233.387.322.165.09.33.16.499.211.168.051.445.125.832.223.484.113.922.238 1.315.375.393.137.727.303 1.002.498s.49.442.644.741c.155.3.232.665.232 1.099z" fill="#fff" fill-rule="evenodd"/>
    <path d="M20.068 27.654h-1.593v2.432c0 .348-.082.611-.246.791a.805.805 0 0 1-.622.27.811.811 0 0 1-.632-.267c-.16-.178-.24-.439-.24-.782v-6.621c0-.383.087-.657.263-.82.176-.165.455-.247.838-.247h2.232c.66 0 1.168.05 1.524.153a2.193 2.193 0 0 1 1.494 1.318c.133.328.2.697.2 1.107 0 .875-.27 1.538-.81 1.99-.539.45-1.341.676-2.408.676zm-.422-3.937h-1.171v2.625h1.171c.41 0 .753-.043 1.029-.13.275-.085.485-.226.63-.421.144-.195.216-.451.216-.768 0-.378-.11-.687-.334-.925-.25-.254-.763-.381-1.54-.381zm11.62 4.705c0 .52-.134.986-.402 1.4-.267.414-.659.739-1.175.973-.515.234-1.126.351-1.834.351-.847 0-1.546-.16-2.097-.48a2.795 2.795 0 0 1-.952-.923c-.244-.385-.367-.759-.367-1.122 0-.21.074-.392.22-.542a.748.748 0 0 1 .56-.225c.183 0 .339.058.466.175.127.117.235.291.325.522.11.273.227.502.354.685.127.184.306.335.536.454.23.12.534.18.909.18.515 0 .934-.121 1.256-.361.323-.24.484-.54.484-.9 0-.285-.087-.516-.26-.694a1.681 1.681 0 0 0-.675-.407 11.588 11.588 0 0 0-1.104-.299c-.617-.145-1.134-.313-1.55-.507a2.505 2.505 0 0 1-.99-.79c-.244-.335-.366-.75-.366-1.246 0-.473.128-.893.386-1.26s.631-.65 1.12-.846c.488-.198 1.062-.296 1.722-.296.527 0 .983.065 1.368.196.385.13.704.305.958.521.254.217.44.445.557.683.117.238.176.47.176.697a.824.824 0 0 1-.22.56.7.7 0 0 1-.548.249c-.2 0-.35-.05-.454-.15a2.013 2.013 0 0 1-.337-.489 2.218 2.218 0 0 0-.562-.759c-.22-.181-.57-.272-1.055-.272-.45 0-.812.099-1.087.296-.275.197-.413.434-.413.712 0 .172.047.32.14.445.094.125.223.233.387.322.164.09.33.16.498.211.168.051.446.125.832.223.485.113.923.238 1.316.375.392.137.726.303 1.002.498.275.195.49.442.644.741.154.3.232.665.232 1.099zM19.471 11.415c.247-.24.664-.251.908-.015l.879.854c.243.237.226.637-.02.877l-.21.204-1.767-1.716zm-.219 1.5.442.429-5.917 5.747c-.021-.127-.057-.247-.122-.31s-.189-.098-.32-.119zm-.662-.644.442.43-5.917 5.747c-.022-.127-.058-.247-.123-.31-.064-.063-.187-.1-.317-.12zm-4.145 7.46c-.02-.122-.056-.235-.117-.296-.073-.07-.2-.106-.332-.127l5.919-5.75.441.43zm-2.616.306.612-1.736c.153.01.294.032.323.05.032.044.063.254.067.44a.153.153 0 0 0 .152.147c.191.003.407.034.444.056.031.044.063.254.066.44.001.08.068.145.15.148.197.006.417.04.454.063.024.035.046.174.055.32l-1.787.595zm9.652-8-.879-.854c-.365-.355-.982-.342-1.352.018l-7.035 6.834a.149.149 0 0 0-.042.088l-1.024 2.905a.148.148 0 0 0 .037.156.16.16 0 0 0 .161.036l3.015-1.003a.158.158 0 0 0 .058-.035l.003-.002 7.035-6.834c.37-.36.389-.954.023-1.31z" fill="#fff" fill-rule="evenodd"/>
</svg>
