<?xml version="1.0" encoding="UTF-8"?>
<svg width="64" height="64" version="1.1" viewBox="0 0 16.933 16.933" xmlns="http://www.w3.org/2000/svg" xmlns:cc="http://creativecommons.org/ns#" xmlns:dc="http://purl.org/dc/elements/1.1/" xmlns:rdf="http://www.w3.org/1999/02/22-rdf-syntax-ns#">
 <metadata>
  <rdf:RDF>
   <cc:Work rdf:about="">
    <dc:format>image/svg+xml</dc:format>
    <dc:type rdf:resource="http://purl.org/dc/dcmitype/StillImage"/>
    <dc:title/>
   </cc:Work>
  </rdf:RDF>
 </metadata>
 <g transform="scale(.26458)">
  <rect x="8" y="4" width="48" height="56" ry="7.5" fill="#e5ecff" style="paint-order:stroke fill markers"/>
  <path d="m56 46-14 14h9c2.77 0 5-2.23 5-5z" fill="url(#a)" fill-rule="evenodd" opacity=".1" stroke-width="8.8191" style="paint-order:stroke fill markers"/>
 </g>
 <path d="m6.0334 5.2858-0.74826 0.74826 2.4324 2.4324-2.4324 2.4324 0.74826 0.74826 2.4324-2.4324 2.4318 2.4324 0.74826-0.74826-2.4324-2.4324 2.4324-2.4324-0.74826-0.74826-2.4318 2.4324z" fill="#c3495e" fill-rule="evenodd" style="paint-order:fill markers stroke"/>
</svg>
