<?xml version="1.0" encoding="UTF-8" standalone="no"?>
<svg
   width="64"
   height="64"
   version="1.1"
   id="svg12"
   xmlns="http://www.w3.org/2000/svg"
   xmlns:svg="http://www.w3.org/2000/svg">
  <defs
     id="defs16" />
  <g
     transform="matrix(1.0000071,0,0,1.0000071,-2.272e-4,-2.272e-4)"
     id="g6">
    <rect
       x="8"
       y="4"
       width="48"
       height="56"
       ry="7.5"
       fill="#6dd79a"
       style="paint-order:stroke fill markers"
       id="rect2-3" />
    <path
       d="M 56,46 42,60 h 9 c 2.77,0 5,-2.23 5,-5 z"
       fill="url(#a)"
       fill-rule="evenodd"
       opacity="0.15"
       stroke-width="8.8191"
       style="paint-order:stroke fill markers"
       id="path4" />
  </g>
  <g
     fill="#ffffff"
     fill-rule="evenodd"
     id="g10"
     transform="matrix(1.5,0,0,1.5,-4,-4.75)">
    <path
       d="m 16.666667,25.166667 h 8.666666 V 15.833333 H 16.666667 Z M 16,15.166667 H 26 V 25.833333 H 16 Z"
       id="path6" />
    <path
       d="m 22.666667,23.833333 v 9.333334 h 8.666666 V 23.833333 Z M 22,23.166667 H 32 V 33.833333 H 22 Z"
       id="path8" />
  </g>
</svg>
