<?xml version="1.0" encoding="UTF-8" standalone="no"?>
<svg
   width="64"
   height="64"
   version="1.1"
   viewBox="0 0 16.933 16.933"
   id="svg10"
   xmlns="http://www.w3.org/2000/svg"
   xmlns:svg="http://www.w3.org/2000/svg">
  <defs
     id="defs14" />
  <g
     transform="matrix(0.26458,0,0,0.26458,-6e-5,-6e-5)"
     id="g6">
    <rect
       x="8"
       y="4"
       width="48"
       height="56"
       ry="7.5"
       fill="#e5ecff"
       style="paint-order:stroke fill markers"
       id="rect2" />
    <path
       d="M 56,46 42,60 h 9 c 2.77,0 5,-2.23 5,-5 z"
       fill="url(#a)"
       fill-rule="evenodd"
       opacity="0.1"
       stroke-width="8.8191"
       style="paint-order:stroke fill markers"
       id="path4" />
  </g>
  <path
     style="fill:#7aa0ec;fill-opacity:1;fill-rule:evenodd;stroke-width:0.466214"
     id="path817"
     d="m 5.7347202,6.6144531 c 0,-0.3459306 0.11096,-0.6965233 0.3333424,-1.0517781 C 6.2899801,5.20742 6.614464,4.9132391 7.0405843,4.6801323 7.4667028,4.4470253 7.963688,4.330472 8.5320014,4.330472 c 0.5282199,0 0.9944336,0.097904 1.3986423,0.292316 0.4042063,0.1948773 0.7165683,0.460153 0.9370893,0.7948945 0.220054,0.3356738 0.330546,0.6993205 0.330546,1.092805 0,0.309566 -0.06295,0.5809023 -0.188818,0.8140093 C 10.883576,7.5576035 10.734395,7.759008 10.561895,7.9282434 10.388469,8.0974793 10.077966,8.382802 9.6299355,8.7832795 9.5253476,8.8769989 9.4260464,8.9764556 9.3324909,9.0811902 9.257904,9.1665076 9.2019547,9.2448313 9.165585,9.3161619 9.130449,9.3842029 9.10218,9.4555754 9.081195,9.5292216 9.061144,9.6000866 9.030855,9.7250314 8.990746,9.9031249 8.92174,10.282157 8.7049582,10.471906 8.3408442,10.471906 c -0.1897486,0 -0.3487274,-0.06248 -0.4783355,-0.186486 -0.129144,-0.123546 -0.1939441,-0.3077004 -0.1939441,-0.5515305 0,-0.3058361 0.047563,-0.5706457 0.1422017,-0.7948946 C 7.9054124,8.7152124 8.0312881,8.5184701 8.1879371,8.3487684 8.3445878,8.1795325 8.5557792,7.9785947 8.8215207,7.7454877 9.0546267,7.5412861 9.2229308,7.3874356 9.3268962,7.2839362 9.4308607,7.1799703 9.5180439,7.0643495 9.5889088,6.9366069 9.6597987,6.8098642 9.6965852,6.6668946 9.6956716,6.5216767 9.7001121,6.2401991 9.581426,5.9708144 9.3707202,5.7841265 9.1539307,5.5836546 8.8742034,5.4834186 8.5315365,5.4834186 c -0.4004785,0 -0.695125,0.1011676 -0.8848753,0.303039 C 7.4573801,5.9887943 7.2970022,6.2867049 7.1664617,6.679723 7.0424457,7.0913898 6.8074774,7.2974562 6.4610798,7.2974562 6.2573454,7.2974562 6.0853116,7.2251922 5.9449817,7.0815994 5.8051237,6.9375387 5.7347202,6.7818238 5.7347202,6.6144531 Z m 2.6662757,5.9880499 c -0.2223841,0 -0.4163283,-0.07226 -0.5818351,-0.215857 -0.1659725,-0.144052 -0.2489566,-0.344999 -0.2489566,-0.603748 0,-0.229376 0.080194,-0.422855 0.2405655,-0.579037 0.1566471,-0.15526 0.3697314,-0.240192 0.5902262,-0.235073 0.2293771,0 0.4223906,0.07843 0.5790378,0.235073 0.1566507,0.156174 0.2349709,0.349661 0.2349709,0.579037 0,0.25502 -0.082057,0.455026 -0.2461602,0.600951 -0.1547703,0.142154 -0.3577083,0.220297 -0.5678485,0.218654 z" />
</svg>
