<?xml version="1.0" encoding="UTF-8" standalone="no"?>
<svg
   width="64"
   height="64"
   version="1.1"
   id="svg18"
   xmlns:xlink="http://www.w3.org/1999/xlink"
   xmlns="http://www.w3.org/2000/svg"
   xmlns:svg="http://www.w3.org/2000/svg">
  <g
     paint-order="markers stroke fill"
     id="g6"
     transform="matrix(1.3333333,0,0,1.4,-9.3333333e-8,-1.6)">
    <rect
       ry="5.3571429"
       y="4"
       x="6"
       height="40"
       width="36"
       fill="#587cec"
       id="rect2" />
  </g>
  <defs
     id="defs14">
    <linearGradient
       xlink:href="#b"
       id="a"
       x1="32.747002"
       y1="44"
       x2="32.747002"
       y2="17.242001"
       gradientUnits="userSpaceOnUse" />
    <linearGradient
       id="b">
      <stop
         offset="0"
         id="stop9" />
      <stop
         offset="1"
         stop-opacity="0"
         id="stop11" />
    </linearGradient>
  </defs>
  <path
     d="M 43,33 H 21 v 3 h -2 v -5 h 12 v -3 h 2 v 3 h 12 v 5 H 43 Z M 25,22 h 14 v 6 H 25 Z M 13,36 h 14 v 6 H 13 Z m 24,0 h 14 v 6 H 37 Z"
     fill="#ffffff"
     fill-rule="evenodd"
     id="path16"
     style="stroke-width:1.53847" />
</svg>
